CAW_Rproject
…
After some discussion, we decided that all the edgy tracks were high in energy, low in danceability, and low in valence.

Hencefore the term “Edgeitude” is:
(((1-valence) + (energy) + (1-danceability))/4 + 0.2))

Streamlined_Data <- spotify %>% select(-c(track_album_id, track_album_name, 
    playlist_name, playlist_id, key, loudness, speechiness, acousticness, 
    instrumentalness, liveness, duration_ms, mode))

Edge_spotifydata <- Streamlined_Data %>% mutate(Edgeitude = (((1 - 
    valence) + (energy) + (1 - danceability))/4 + 0.2))

Edge_spotifydata %>% filter(track_artist == "Linkin Park")

## # A tibble: 21 x 12
##    track_id track_name track_artist track_popularity track_album_rel…
##    <chr>    <chr>      <chr>                   <dbl> <chr>           
##  1 3aYBjxT… Final Mas… Linkin Park                63 2014-06-13      
##  2 7oVEtyu… BURN IT D… Linkin Park                73 2012-06-20      
##  3 1r1fPuh… CASTLE OF… Linkin Park                71 2012-06-20      
##  4 6n8TMVy… Breaking … Linkin Park                65 2003-03-24      
##  5 3fjmSxt… Somewhere… Linkin Park                69 2003-03-24      
##  6 4Yf5bqU… Faint      Linkin Park                69 2003-03-24      
##  7 0UFDKFq… Bleed It … Linkin Park                72 2007-05-14      
##  8 60a0Rd6… In the End Linkin Park                83 2000-10-24      
##  9 2nLtzop… Numb       Linkin Park                81 2003-03-24      
## 10 4Sxx1wd… Shadow of… Linkin Park                50 2007-05-14      
## # … with 11 more rows, and 7 more variables: playlist_genre <chr>,
## #   playlist_subgenre <chr>, danceability <dbl>, energy <dbl>, valence <dbl>,
## #   tempo <dbl>, Edgeitude <dbl>
…
I chose these stats because I wanted to observe the edgitude max, min, and mean mostly. Sd seems useful in the long run for graphical applications?

I then pivot the table longer so its easier to read.

Some of the datasets had the axis switched, so I used a transpose prior to viewing.

Here are the ungrouped stats.

Edge_spotifydata %>% summarize_if(is.numeric, list(unique = n_distinct, 
    mean = mean, sd = sd, median = median, max = max, min = min), 
    na.rm = T) %>% pivot_longer(c(contains("_")), names_to = "variable_stat", 
    values_to = "values")

## # A tibble: 36 x 2
##    variable_stat              values
##    <chr>                       <dbl>
##  1 track_popularity_unique   101    
##  2 danceability_unique       822    
##  3 energy_unique             952    
##  4 valence_unique           1362    
##  5 tempo_unique            17684    
##  6 Edgeitude_unique         3546    
##  7 track_popularity_mean      42.5  
##  8 danceability_mean           0.655
##  9 energy_mean                 0.699
## 10 valence_mean                0.511
## # … with 26 more rows
…
Edge_spotifydata %>% group_by(track_name, Edgeitude) %>% arrange(desc(Edgeitude))

## # A tibble: 32,833 x 12
## # Groups:   track_name, Edgeitude [27,687]
##    track_id track_name track_artist track_popularity track_album_rel…
##    <chr>    <chr>      <chr>                   <dbl> <chr>           
##  1 6ADPydL… Forest Ra… Rain Record…               75 2019-09-06      
##  2 37TdJ5E… Chill Wav… Pinetree Way               57 2019-10-03      
##  3 5CwOUoo… Rain Fore… Nature Soun…               52 2011-02-16      
##  4 0rtT2Dm… Suburban … Aquagirl                   57 2019-05-23      
##  5 3t4ZPAn… Feed The … Red                        43 2011-02-01      
##  6 1Ksf0mo… Nightfall… Shaman                     50 2019-09-12      
##  7 3exfZvh… Legend     VINAI                      36 2015-05-04      
##  8 7oOeB6z… Gentle Wa… Pinetree Way               48 2019-10-03      
##  9 0bqz8PQ… Beast      PURARI                     38 2019-06-05      
## 10 6fsth2h… AVA        Garmiani                   48 2019-09-27      
## # … with 32,823 more rows, and 7 more variables: playlist_genre <chr>,
## #   playlist_subgenre <chr>, danceability <dbl>, energy <dbl>, valence <dbl>,
## #   tempo <dbl>, Edgeitude <dbl>
…
